\contentsline {section}{\numberline {1}Rappel et Opérateurs Différentiels}{4}{}%
\contentsline {subsection}{\numberline {1.1}Rappels Analyse II}{4}{}%
\contentsline {subsection}{\numberline {1.2}Opérateurs Différentiels}{5}{}%
\contentsline {section}{\numberline {2}Courbes}{7}{}%
\contentsline {subsection}{\numberline {2.1}Définitions Concernant les Courbes}{7}{}%
\contentsline {subsection}{\numberline {2.2}Intégrales Curvlignes}{8}{}%
\contentsline {section}{\numberline {3}Champs qui Dérivent d'un Potential}{9}{}%
\contentsline {subsection}{\numberline {3.1}Définitions}{9}{}%
\contentsline {subsection}{\numberline {3.2}Théorèmes}{9}{}%
\contentsline {section}{\numberline {4}Théorème de Green}{10}{}%
\contentsline {subsection}{\numberline {4.1}Définitions}{10}{}%
\contentsline {subsection}{\numberline {4.2}Théorèmes}{10}{}%
\contentsline {section}{\numberline {5}Intégrales de Surfaces}{11}{}%
\contentsline {subsection}{\numberline {5.1}Définitions}{11}{}%
\contentsline {section}{\numberline {6}Théorème de la Divergence}{13}{}%
\contentsline {subsection}{\numberline {6.1}Définitions}{13}{}%
\contentsline {subsection}{\numberline {6.2}Théorèmes}{13}{}%
\contentsline {section}{\numberline {7}Théorème de Stokes}{14}{}%
\contentsline {section}{\numberline {8}Séries de Fourier}{14}{}%
\contentsline {section}{\numberline {9}Définitions}{14}{}%
\contentsline {subsection}{\numberline {9.1}Théorèmes }{15}{}%
