\relax 
\@writefile{toc}{\contentsline {section}{\numberline {1}Electric Charge and Coulomb's Law}{2}{}\protected@file@percent }
\@writefile{toc}{\contentsline {subsection}{\numberline {1.1}Electric Charges and Materials}{2}{}\protected@file@percent }
\@writefile{toc}{\contentsline {subsection}{\numberline {1.2}Charge Densities and Electric Force}{3}{}\protected@file@percent }
\@writefile{toc}{\contentsline {section}{\numberline {2}Electric Fields}{5}{}\protected@file@percent }
\@writefile{toc}{\contentsline {subsection}{\numberline {2.1}definitions}{5}{}\protected@file@percent }
\@writefile{toc}{\contentsline {subsection}{\numberline {2.2}Electric fields and Conductors}{6}{}\protected@file@percent }
\@writefile{toc}{\contentsline {subsection}{\numberline {2.3}Electric Dipoles}{6}{}\protected@file@percent }
\@writefile{toc}{\contentsline {section}{\numberline {3}Paradox of Coulomb's Force and Gauss' Law}{8}{}\protected@file@percent }
\@writefile{toc}{\contentsline {subsection}{\numberline {3.1}The Paradox of Coulomb's Force}{8}{}\protected@file@percent }
\@writefile{toc}{\contentsline {subsection}{\numberline {3.2}First Maxwell Equation}{9}{}\protected@file@percent }
\@writefile{toc}{\contentsline {section}{\numberline {4}Electric Field and Electric Potential}{10}{}\protected@file@percent }
\@writefile{toc}{\contentsline {subsection}{\numberline {4.1}Electric Potential}{10}{}\protected@file@percent }
\@writefile{toc}{\contentsline {subsection}{\numberline {4.2}Electric fields in conductors}{12}{}\protected@file@percent }
\@writefile{toc}{\contentsline {subsection}{\numberline {4.3}More to the electric field?}{13}{}\protected@file@percent }
\@writefile{toc}{\contentsline {subsection}{\numberline {4.4}Understanding Electric Fields with "Rotational" Component}{14}{}\protected@file@percent }
\@writefile{toc}{\contentsline {subsection}{\numberline {4.5}Stoke's Theorem}{14}{}\protected@file@percent }
\@writefile{toc}{\contentsline {section}{\numberline {5}Magnetic Force}{15}{}\protected@file@percent }
\@writefile{toc}{\contentsline {subsection}{\numberline {5.1}Current}{15}{}\protected@file@percent }
\@writefile{toc}{\contentsline {subparagraph}{Charge Continuity:}{15}{}\protected@file@percent }
\@writefile{toc}{\contentsline {subsection}{\numberline {5.2}Magnetic Forces: Biot-Savart Law}{16}{}\protected@file@percent }
\@writefile{toc}{\contentsline {section}{\numberline {6}Magnetic Dipoles and Maxwell's Second Equation}{18}{}\protected@file@percent }
\@writefile{toc}{\contentsline {subsection}{\numberline {6.1}Paradox}{18}{}\protected@file@percent }
\@writefile{toc}{\contentsline {subsection}{\numberline {6.2}Magnetic Force on an Electric Charge}{18}{}\protected@file@percent }
\@writefile{toc}{\contentsline {subsection}{\numberline {6.3}Magnetic Dipole in a B-field}{20}{}\protected@file@percent }
\@writefile{toc}{\contentsline {subsection}{\numberline {6.4}Second Maxwell's Equation}{21}{}\protected@file@percent }
\@writefile{toc}{\contentsline {section}{\numberline {7}Maxwell's Third Equation}{22}{}\protected@file@percent }
\@writefile{toc}{\contentsline {subsection}{\numberline {7.1}Circuits and Ohm's Law}{22}{}\protected@file@percent }
\@writefile{toc}{\contentsline {subsection}{\numberline {7.2}Electromagnetic Induction - Lenz's Law}{23}{}\protected@file@percent }
\@writefile{toc}{\contentsline {subsection}{\numberline {7.3}Faraday's Law}{23}{}\protected@file@percent }
\@writefile{toc}{\contentsline {section}{\numberline {8}Ampère's Law}{24}{}\protected@file@percent }
\@writefile{toc}{\contentsline {subsection}{\numberline {8.1}Ampère's Circuital Law}{24}{}\protected@file@percent }
\@writefile{toc}{\contentsline {section}{\numberline {9}Maxwell's Fourth Equation}{26}{}\protected@file@percent }
\@writefile{toc}{\contentsline {subsection}{\numberline {9.1}Deriving Maxwell's Fourth Equation}{26}{}\protected@file@percent }
\@writefile{toc}{\contentsline {subsection}{\numberline {9.2}Comments on Maxwell's equations}{26}{}\protected@file@percent }
\@writefile{toc}{\contentsline {section}{\numberline {10}Electromagnetic Waves}{27}{}\protected@file@percent }
\@writefile{toc}{\contentsline {subsection}{\numberline {10.1}Recap}{27}{}\protected@file@percent }
\@writefile{toc}{\contentsline {subsection}{\numberline {10.2}Wave Equation}{28}{}\protected@file@percent }
\@writefile{toc}{\contentsline {subsection}{\numberline {10.3}Solution of a Wave Equation}{28}{}\protected@file@percent }
\@writefile{toc}{\contentsline {subsection}{\numberline {10.4}Characteristics of a Wave}{29}{}\protected@file@percent }
\@writefile{toc}{\contentsline {subsection}{\numberline {10.5}Electromagnetic Waves}{29}{}\protected@file@percent }
\@writefile{toc}{\contentsline {subsection}{\numberline {10.6}Properties of Electromagnetic Waves}{30}{}\protected@file@percent }
\@writefile{toc}{\contentsline {subsection}{\numberline {10.7}Polarization of Electromagnetic Waves}{30}{}\protected@file@percent }
\@writefile{toc}{\contentsline {section}{\numberline {11}Emission of Electromagnetic Waves}{31}{}\protected@file@percent }
\@writefile{toc}{\contentsline {subsection}{\numberline {11.1}Necessary Condition for EM waves}{31}{}\protected@file@percent }
\@writefile{toc}{\contentsline {subsection}{\numberline {11.2}LC circuit}{31}{}\protected@file@percent }
\@writefile{toc}{\contentsline {subsection}{\numberline {11.3}Summary}{33}{}\protected@file@percent }
\@writefile{toc}{\contentsline {section}{\numberline {12}Circuits}{33}{}\protected@file@percent }
\@writefile{toc}{\contentsline {subsection}{\numberline {12.1}Reminder}{33}{}\protected@file@percent }
\@writefile{toc}{\contentsline {subsection}{\numberline {12.2}LC Revisited}{34}{}\protected@file@percent }
\@writefile{toc}{\contentsline {subsection}{\numberline {12.3}Energy Losses and Resistance}{35}{}\protected@file@percent }
\@writefile{toc}{\contentsline {subsection}{\numberline {12.4}Kirchoff's Rules}{35}{}\protected@file@percent }
\@writefile{toc}{\contentsline {subsection}{\numberline {12.5}Damped Oscillations:}{36}{}\protected@file@percent }
\@writefile{toc}{\contentsline {subsection}{\numberline {12.6}Driven Oscillations}{36}{}\protected@file@percent }
\gdef \@abspage@last{38}
